test_Chapter9
…
library(dslabs)

  : dslabs

The following object is masked _by_ .GlobalEnv:

    gapminder

data(gapminder)
gapminder %>% as_tibble()

#> # A tibble: 10,545 x 9
#>   country  year infant_mortality life_expectancy fertility population
#>   <fct>   <int>            <dbl>           <dbl>     <dbl>      <dbl>
#> 1 Albania  1960            115.             62.9      6.19    1636054
#> 2 Algeria  1960            148.             47.5      7.65   11124892
#> 3 Angola   1960            208              36.0      7.32    5270844
#> 4 Antigu  1960             NA              63.0      4.43      54681
#> 5 Argent  1960             59.9            65.4      3.11   20619075
#> #  with 10,540 more rows, and 3 more variables: gdp <dbl>,
#> #   continent <fct>, region <fct>
…
